{
  "anotherData": [
    {
      "banner_image": "https://web-sxd.age-corp.jp/view/bn_game/bn_game_170413b.jpg",
      "banner_url": "https://web-sxd.age-corp.jp/notice/?p=3388",
      "category": "an1_001_0001",
      "disable": 0,
      "icon_boss": "ic_en_60121.png",
      "id": 101,
      "map_name": "stage_0001.png",
      "map_x": 1276,
      "map_y": 1178,
      "name": "第1話",
      "name_sub": "二度目の嘘つき前編",
      "order": 1,
      "rank": 1,
      "story_only_flg": 0
    },
    {
      "banner_image": "https://web-sxd.age-corp.jp/view/bn_game/bn_game_170413b.jpg",
      "banner_url": "https://web-sxd.age-corp.jp/notice/?p=3388",
      "category": "an1_001_0002",
      "disable": 0,
      "icon_boss": "ic_en_160012.png",
      "id": 102,
      "map_name": "stage_0001.png",
      "map_x": 1276,
      "map_y": 1178,
      "name": "第2話",
      "name_sub": "二度目の嘘つき後編",
      "order": 2,
      "rank": 1,
      "story_only_flg": 0
    },
    {
      "banner_image": "https://web-sxd.age-corp.jp/view/bn_game/bn_game_170413b.jpg",
      "banner_url": "https://web-sxd.age-corp.jp/notice/?p=3390",
      "category": "an1_001_0003",
      "disable": 0,
      "icon_boss": "ic_en_160015.png",
      "id": 103,
      "map_name": "stage_0001.png",
      "map_x": 1276,
      "map_y": 1178,
      "name": "第3話",
      "name_sub": "私、繭になる",
      "order": 3,
      "rank": 1,
      "story_only_flg": 0
    },
    {
      "banner_image": "https://web-sxd.age-corp.jp/view/bn_game/bn_game_170413b.jpg",
      "banner_url": "https://web-sxd.age-corp.jp/notice/?p=3392",
      "category": "an1_001_0004",
      "disable": 0,
      "icon_boss": "ic_en_160018.png",
      "id": 104,
      "map_name": "stage_0002.png",
      "map_x": 1376,
      "map_y": 1080,
      "name": "第4話",
      "name_sub": "伝説ではなく伝統",
      "order": 4,
      "rank": 1,
      "story_only_flg": 0
    },
    {
      "banner_image": "https://web-sxd.age-corp.jp/view/bn_game/bn_game_170413b.jpg",
      "banner_url": "https://web-sxd.age-corp.jp/notice/?p=3394",
      "category": "an1_001_0005",
      "disable": 0,
      "icon_boss": "ic_en_100107.png",
      "id": 105,
      "map_name": "stage_0001.png",
      "map_x": 1276,
      "map_y": 1178,
      "name": "第5話",
      "name_sub": "終わり良ければ全て良し",
      "order": 5,
      "rank": 1,
      "story_only_flg": 0
    },
    {
      "banner_image": "https://web-sxd.age-corp.jp/view/bn_game/bn_game_170413c.jpg",
      "banner_url": "https://web-sxd.age-corp.jp/notice/?p=4007",
      "category": "an1_002_0001",
      "disable": 0,
      "icon_boss": "ic_en_60129.png",
      "id": 201,
      "map_name": "stage_0001.png",
      "map_x": 1376,
      "map_y": 1080,
      "name": "第1話",
      "name_sub": "悪意の所在",
      "order": 1,
      "rank": 1,
      "story_only_flg": 0
    },
    {
      "banner_image": "https://web-sxd.age-corp.jp/view/bn_game/bn_game_170413d.jpg",
      "banner_url": "https://web-sxd.age-corp.jp/notice/?p=4008",
      "category": "an1_002_0002",
      "disable": 0,
      "icon_boss": "ic_en_60122.png",
      "id": 202,
      "map_name": "stage_0001.png",
      "map_x": 1376,
      "map_y": 1080,
      "name": "第2話",
      "name_sub": "スプリンター",
      "order": 2,
      "rank": 1,
      "story_only_flg": 0
    },
    {
      "banner_image": "https://web-sxd.age-corp.jp/view/bn_game/bn_game_170223b.jpg",
      "banner_url": "https://web-sxd.age-corp.jp/notice/?p=3287",
      "category": "an2_001_0001",
      "disable": 0,
      "icon_boss": "ic_meiroko.png",
      "id": 301,
      "map_name": "stage_0001.png",
      "map_x": 1276,
      "map_y": 1178,
      "name": "第1話",
      "name_sub": "虹の麓を目指して",
      "order": 1,
      "rank": 1,
      "story_only_flg": 0
    },
    {
      "banner_image": "https://web-sxd.age-corp.jp/view/bn_game/bn_game_170302.jpg",
      "banner_url": "https://web-sxd.age-corp.jp/notice/?p=3398",
      "category": "an2_001_0002",
      "disable": 0,
      "icon_boss": "ic_kabane.png",
      "id": 302,
      "map_name": "stage_0001.png",
      "map_x": 1276,
      "map_y": 1178,
      "name": "第2話",
      "name_sub": "望んだ嵐の道",
      "order": 2,
      "rank": 1,
      "story_only_flg": 0
    },
    {
      "banner_image": "https://web-sxd.age-corp.jp/view/bn_game/bn_game_170316b.jpg",
      "banner_url": "https://web-sxd.age-corp.jp/notice/?p=3603",
      "category": "an2_002_0001",
      "disable": 0,
      "icon_boss": "ic_obore.png",
      "id": 401,
      "map_name": "stage_0001.png",
      "map_x": 1276,
      "map_y": 1178,
      "name": "第1話",
      "name_sub": "VS落愛おぼれ",
      "order": 1,
      "rank": 1,
      "story_only_flg": 0
    },
    {
      "banner_image": "https://web-sxd.age-corp.jp/view/bn_game/bn_game_170330a.jpg",
      "banner_url": "https://web-sxd.age-corp.jp/notice/?p=3802",
      "category": "an2_002_0002",
      "disable": 0,
      "icon_boss": "ic_karura.png",
      "id": 402,
      "map_name": "stage_0002.png",
      "map_x": 1376,
      "map_y": 1080,
      "name": "第2話",
      "name_sub": "VS錫杖架瑠裸",
      "order": 2,
      "rank": 1,
      "story_only_flg": 0
    },
    {
      "banner_image": "https://web-sxd.age-corp.jp/view/bn_game/bn_game_170330b.jpg",
      "banner_url": "https://web-sxd.age-corp.jp/notice/?p=3803",
      "category": "an2_002_0003",
      "disable": 0,
      "icon_boss": "ic_meiroko.png",
      "id": 403,
      "map_name": "stage_0001.png",
      "map_x": 1276,
      "map_y": 1178,
      "name": "第3話",
      "name_sub": "VS財膳迷路子",
      "order": 3,
      "rank": 1,
      "story_only_flg": 0
    },
    {
      "banner_image": "https://web-sxd.age-corp.jp/view/bn_game/bn_game_170330c.jpg",
      "banner_url": "https://web-sxd.age-corp.jp/notice/?p=3804",
      "category": "an2_002_0004",
      "disable": 0,
      "icon_boss": "ic_kabane.png",
      "id": 404,
      "map_name": "stage_0001.png",
      "map_x": 1276,
      "map_y": 1178,
      "name": "第4話",
      "name_sub": "VS騎獅道屍",
      "order": 4,
      "rank": 1,
      "story_only_flg": 0
    },
    {
      "banner_image": "https://web-sxd.age-corp.jp/view/bn_game/bn_game_170907a.jpg",
      "banner_url": "https://web-sxd.age-corp.jp/notice/?p=5792",
      "category": "an2_003_0001",
      "disable": 0,
      "icon_boss": "ic_kabane.png",
      "id": 501,
      "map_name": "stage_0001.png",
      "map_x": 1276,
      "map_y": 1178,
      "name": "第1話",
      "name_sub": "欠けた月の行方I",
      "order": 1,
      "rank": 1,
      "story_only_flg": 0
    },
    {
      "banner_image": "https://web-sxd.age-corp.jp/view/bn_game/bn_game_170907a.jpg",
      "banner_url": "https://web-sxd.age-corp.jp/notice/?p=5792",
      "category": "an2_003_0002",
      "disable": 0,
      "icon_boss": "ic_kabane.png",
      "id": 502,
      "map_name": "stage_0001.png",
      "map_x": 1276,
      "map_y": 1178,
      "name": "第1話",
      "name_sub": "欠けた月の行方II",
      "order": 2,
      "rank": 1,
      "story_only_flg": 0
    },
    {
      "banner_image": "https://web-sxd.age-corp.jp/view/bn_game/bn_game_170907a.jpg",
      "banner_url": "https://web-sxd.age-corp.jp/notice/?p=5792",
      "category": "an2_003_0003",
      "disable": 0,
      "icon_boss": "ic_obore.png",
      "id": 503,
      "map_name": "stage_0001.png",
      "map_x": 1276,
      "map_y": 1178,
      "name": "第2話",
      "name_sub": "過去の底で眠るI",
      "order": 3,
      "rank": 1,
      "story_only_flg": 0
    },
    {
      "banner_image": "https://web-sxd.age-corp.jp/view/bn_game/bn_game_171129_b.jpg",
      "banner_url": "https://web-sxd.age-corp.jp/notice/?p=5792",
      "category": "an2_003_0004",
      "disable": 0,
      "icon_boss": "ic_obore.png",
      "id": 504,
      "map_name": "stage_0001.png",
      "map_x": 1276,
      "map_y": 1178,
      "name": "第2話",
      "name_sub": "過去の底で眠るII",
      "order": 4,
      "rank": 1,
      "story_only_flg": 0
    },
    {
      "banner_image": "https://web-sxd.age-corp.jp/view/bn_game/bn_game_180314_d.jpg",
      "banner_url": "https://web-sxd.age-corp.jp/notice/?p=8655",
      "category": "an3_001_0001",
      "disable": 0,
      "icon_boss": "ic_hakoyosuga.png",
      "id": 601,
      "map_name": "stage_0001.png",
      "map_x": 1276,
      "map_y": 1178,
      "name": "シナリオ",
      "name_sub": "プロローグ",
      "order": 1,
      "rank": 1,
      "story_only_flg": 0
    },
    {
      "banner_image": "https://web-sxd.age-corp.jp/view/bn_game/bn_game_180314_d.jpg",
      "banner_url": "https://web-sxd.age-corp.jp/notice/?p=8655",
      "category": "an3_001_0001",
      "disable": 0,
      "icon_boss": "ic_hakoyosuga.png",
      "id": 602,
      "map_name": "stage_0001.png",
      "map_x": 1276,
      "map_y": 1178,
      "name": "シナリオ",
      "name_sub": "STAGE 1-1",
      "order": 1,
      "rank": 1,
      "story_only_flg": 0
    },
    {
      "banner_image": "https://web-sxd.age-corp.jp/view/bn_game/bn_game_180314_d.jpg",
      "banner_url": "https://web-sxd.age-corp.jp/notice/?p=8655",
      "category": "an3_001_0001",
      "disable": 0,
      "icon_boss": "ic_hakoyosuga.png",
      "id": 603,
      "map_name": "stage_0001.png",
      "map_x": 1276,
      "map_y": 1178,
      "name": "シナリオ",
      "name_sub": "STAGE 1-2",
      "order": 1,
      "rank": 1,
      "story_only_flg": 0
    },
    {
      "banner_image": "https://web-sxd.age-corp.jp/view/bn_game/bn_game_180314_d.jpg",
      "banner_url": "https://web-sxd.age-corp.jp/notice/?p=8655",
      "category": "an3_001_0001",
      "disable": 0,
      "icon_boss": "ic_hakoyosuga.png",
      "id": 604,
      "map_name": "stage_0001.png",
      "map_x": 1276,
      "map_y": 1178,
      "name": "シナリオ",
      "name_sub": "STAGE 2-1",
      "order": 1,
      "rank": 1,
      "story_only_flg": 0
    },
    {
      "banner_image": "https://web-sxd.age-corp.jp/view/bn_game/bn_game_180314_d.jpg",
      "banner_url": "https://web-sxd.age-corp.jp/notice/?p=8655",
      "category": "an3_001_0001",
      "disable": 0,
      "icon_boss": "ic_hakoyosuga.png",
      "id": 605,
      "map_name": "stage_0001.png",
      "map_x": 1276,
      "map_y": 1178,
      "name": "シナリオ",
      "name_sub": "STAGE 2-2",
      "order": 1,
      "rank": 1,
      "story_only_flg": 0
    },
    {
      "banner_image": "https://web-sxd.age-corp.jp/view/bn_game/bn_game_180314_d.jpg",
      "banner_url": "https://web-sxd.age-corp.jp/notice/?p=8655",
      "category": "an3_001_0001",
      "disable": 0,
      "icon_boss": "ic_hakoyosuga.png",
      "id": 606,
      "map_name": "stage_0001.png",
      "map_x": 1276,
      "map_y": 1178,
      "name": "シナリオ",
      "name_sub": "STAGE 2-3",
      "order": 1,
      "rank": 1,
      "story_only_flg": 0
    },
    {
      "banner_image": "https://web-sxd.age-corp.jp/view/bn_game/bn_game_180314_d.jpg",
      "banner_url": "https://web-sxd.age-corp.jp/notice/?p=8655",
      "category": "an3_001_0001",
      "disable": 0,
      "icon_boss": "ic_hakoyosuga.png",
      "id": 607,
      "map_name": "stage_0001.png",
      "map_x": 1276,
      "map_y": 1178,
      "name": "シナリオ",
      "name_sub": "STAGE 2-4",
      "order": 1,
      "rank": 1,
      "story_only_flg": 0
    },
    {
      "banner_image": "https://web-sxd.age-corp.jp/view/bn_game/bn_game_180314_d.jpg",
      "banner_url": "https://web-sxd.age-corp.jp/notice/?p=8655",
      "category": "an3_001_0001",
      "disable": 0,
      "icon_boss": "ic_hakoyosuga.png",
      "id": 608,
      "map_name": "stage_0001.png",
      "map_x": 1276,
      "map_y": 1178,
      "name": "シナリオ",
      "name_sub": "STAGE 2-5",
      "order": 1,
      "rank": 1,
      "story_only_flg": 0
    },
    {
      "banner_image": "https://web-sxd.age-corp.jp/view/bn_game/bn_game_180314_d.jpg",
      "banner_url": "https://web-sxd.age-corp.jp/notice/?p=8655",
      "category": "an3_001_0001",
      "disable": 0,
      "icon_boss": "ic_hakoyosuga.png",
      "id": 609,
      "map_name": "stage_0001.png",
      "map_x": 1276,
      "map_y": 1178,
      "name": "シナリオ",
      "name_sub": "STAGE 3-1",
      "order": 1,
      "rank": 1,
      "story_only_flg": 0
    },
    {
      "banner_image": "https://web-sxd.age-corp.jp/view/bn_game/bn_game_180314_d.jpg",
      "banner_url": "https://web-sxd.age-corp.jp/notice/?p=8655",
      "category": "an3_001_0001",
      "disable": 0,
      "icon_boss": "ic_hakoyosuga.png",
      "id": 610,
      "map_name": "stage_0001.png",
      "map_x": 1276,
      "map_y": 1178,
      "name": "シナリオ",
      "name_sub": "STAGE 3-2",
      "order": 1,
      "rank": 1,
      "story_only_flg": 0
    },
    {
      "banner_image": "https://web-sxd.age-corp.jp/view/bn_game/bn_game_180314_d.jpg",
      "banner_url": "https://web-sxd.age-corp.jp/notice/?p=8655",
      "category": "an3_001_0001",
      "disable": 0,
      "icon_boss": "ic_hakoyosuga.png",
      "id": 611,
      "map_name": "stage_0001.png",
      "map_x": 1276,
      "map_y": 1178,
      "name": "シナリオ",
      "name_sub": "STAGE 3-3",
      "order": 1,
      "rank": 1,
      "story_only_flg": 0
    },
    {
      "banner_image": "https://web-sxd.age-corp.jp/view/bn_game/bn_game_180314_d.jpg",
      "banner_url": "https://web-sxd.age-corp.jp/notice/?p=8655",
      "category": "an3_001_0001",
      "disable": 0,
      "icon_boss": "ic_hakoyosuga.png",
      "id": 612,
      "map_name": "stage_0001.png",
      "map_x": 1276,
      "map_y": 1178,
      "name": "シナリオ",
      "name_sub": "STAGE 3-4",
      "order": 1,
      "rank": 1,
      "story_only_flg": 0
    },
    {
      "banner_image": "https://web-sxd.age-corp.jp/view/bn_game/bn_game_180314_d.jpg",
      "banner_url": "https://web-sxd.age-corp.jp/notice/?p=8655",
      "category": "an3_001_0001",
      "disable": 0,
      "icon_boss": "ic_hakoyosuga.png",
      "id": 613,
      "map_name": "stage_0001.png",
      "map_x": 1276,
      "map_y": 1178,
      "name": "シナリオ",
      "name_sub": "STAGE 3-5",
      "order": 1,
      "rank": 1,
      "story_only_flg": 0
    },
    {
      "banner_image": "https://web-sxd.age-corp.jp/view/bn_game/bn_game_180314_d.jpg",
      "banner_url": "https://web-sxd.age-corp.jp/notice/?p=8655",
      "category": "an3_001_0001",
      "disable": 0,
      "icon_boss": "ic_hakoyosuga.png",
      "id": 614,
      "map_name": "stage_0001.png",
      "map_x": 1276,
      "map_y": 1178,
      "name": "シナリオ",
      "name_sub": "STAGE 3-6",
      "order": 1,
      "rank": 1,
      "story_only_flg": 0
    },
    {
      "banner_image": "https://web-sxd.age-corp.jp/view/bn_game/bn_game_180314_d.jpg",
      "banner_url": "https://web-sxd.age-corp.jp/notice/?p=8655",
      "category": "an3_001_0001",
      "disable": 0,
      "icon_boss": "ic_hakoyosuga.png",
      "id": 615,
      "map_name": "stage_0001.png",
      "map_x": 1276,
      "map_y": 1178,
      "name": "シナリオ",
      "name_sub": "STAGE 3-7",
      "order": 1,
      "rank": 1,
      "story_only_flg": 0
    },
    {
      "banner_image": "https://web-sxd.age-corp.jp/view/bn_game/bn_game_180314_d.jpg",
      "banner_url": "https://web-sxd.age-corp.jp/notice/?p=8655",
      "category": "an3_001_0001",
      "disable": 0,
      "icon_boss": "ic_hakoyosuga.png",
      "id": 616,
      "map_name": "stage_0001.png",
      "map_x": 1276,
      "map_y": 1178,
      "name": "シナリオ",
      "name_sub": "STAGE 3-8",
      "order": 1,
      "rank": 1,
      "story_only_flg": 0
    },
    {
      "banner_image": "https://web-sxd.age-corp.jp/view/bn_game/bn_game_180314_d.jpg",
      "banner_url": "https://web-sxd.age-corp.jp/notice/?p=8655",
      "category": "an3_001_0001",
      "disable": 0,
      "icon_boss": "ic_hakoyosuga.png",
      "id": 617,
      "map_name": "stage_0001.png",
      "map_x": 1276,
      "map_y": 1178,
      "name": "シナリオ",
      "name_sub": "エピローグ",
      "order": 1,
      "rank": 1,
      "story_only_flg": 0
    },
    {
      "banner_image": "",
      "banner_url": "https://web-sxd.age-corp.jp/notice/?p=4171",
      "category": "an1_999_0001",
      "disable": 0,
      "icon_boss": "ic_en_60105.png",
      "id": 901,
      "map_name": "ic_en_60105.png",
      "map_x": 1276,
      "map_y": 1178,
      "name": "PHASE1",
      "name_sub": "帰らぬ旅路へ",
      "order": 1,
      "rank": 1,
      "story_only_flg": 0
    },
    {
      "banner_image": "",
      "banner_url": "https://web-sxd.age-corp.jp/notice/?p=4171",
      "category": "an1_999_0002",
      "disable": 0,
      "icon_boss": "ic_en_60110.png",
      "id": 902,
      "map_name": "ic_en_60110.png",
      "map_x": 1276,
      "map_y": 1178,
      "name": "PHASE2",
      "name_sub": "渚輪区市街",
      "order": 2,
      "rank": 1,
      "story_only_flg": 0
    },
    {
      "banner_image": "",
      "banner_url": "https://web-sxd.age-corp.jp/notice/?p=4171",
      "category": "an1_999_0003",
      "disable": 0,
      "icon_boss": "ic_en_60115.png",
      "id": 903,
      "map_name": "ic_en_60115.png",
      "map_x": 1276,
      "map_y": 1178,
      "name": "PHASE3",
      "name_sub": "中華街",
      "order": 3,
      "rank": 1,
      "story_only_flg": 0
    },
    {
      "banner_image": "",
      "banner_url": "https://web-sxd.age-corp.jp/notice/?p=4171",
      "category": "an1_999_0004",
      "disable": 0,
      "icon_boss": "ic_en_60122.png",
      "id": 904,
      "map_name": "ic_en_60122.png",
      "map_x": 1276,
      "map_y": 1178,
      "name": "PHASE4",
      "name_sub": "山本公園",
      "order": 4,
      "rank": 1,
      "story_only_flg": 0
    },
    {
      "banner_image": "",
      "banner_url": "https://web-sxd.age-corp.jp/notice/?p=4171",
      "category": "an1_999_0005",
      "disable": 0,
      "icon_boss": "ic_en_60128.png",
      "id": 905,
      "map_name": "stage_0005.png",
      "map_x": 1276,
      "map_y": 1178,
      "name": "PHASE5",
      "name_sub": "中華街へ戻る",
      "order": 5,
      "rank": 1,
      "story_only_flg": 0
    },
    {
      "banner_image": "",
      "banner_url": "https://web-sxd.age-corp.jp/notice/?p=4171",
      "category": "an1_999_0006",
      "disable": 0,
      "icon_boss": "ic_en_60133.png",
      "id": 906,
      "map_name": "stage_0006.png",
      "map_x": 1276,
      "map_y": 1178,
      "name": "PHASE6",
      "name_sub": "プール王国",
      "order": 6,
      "rank": 1,
      "story_only_flg": 0
    },
    {
      "banner_image": "",
      "banner_url": "https://web-sxd.age-corp.jp/notice/?p=4171",
      "category": "an1_999_0007",
      "disable": 0,
      "icon_boss": "ic_en_60138.png",
      "id": 907,
      "map_name": "stage_0007.png",
      "map_x": 1276,
      "map_y": 1178,
      "name": "PHASE7",
      "name_sub": "一路北西へ",
      "order": 7,
      "rank": 1,
      "story_only_flg": 0
    },
    {
      "banner_image": "",
      "banner_url": "https://web-sxd.age-corp.jp/notice/?p=4171",
      "category": "an1_999_0008",
      "disable": 0,
      "icon_boss": "ic_en_60140.png",
      "id": 908,
      "map_name": "stage_0008.png",
      "map_x": 1276,
      "map_y": 1178,
      "name": "PHASE8",
      "name_sub": "食料補給",
      "order": 8,
      "rank": 1,
      "story_only_flg": 0
    },
    {
      "banner_image": "",
      "banner_url": "https://web-sxd.age-corp.jp/notice/?p=4171",
      "category": "an1_999_0009",
      "disable": 0,
      "icon_boss": "ic_en_60151.png",
      "id": 909,
      "map_name": "stage_0009.png",
      "map_x": 1276,
      "map_y": 1178,
      "name": "PHASE9",
      "name_sub": "榎林ヶ丘の顛末",
      "order": 9,
      "rank": 1,
      "story_only_flg": 0
    },
    {
      "banner_image": "",
      "banner_url": "https://web-sxd.age-corp.jp/notice/?p=4171",
      "category": "an1_999_0010",
      "disable": 0,
      "icon_boss": "ic_en_60158.png",
      "id": 910,
      "map_name": "stage_0010.png",
      "map_x": 1276,
      "map_y": 1178,
      "name": "PHASE10",
      "name_sub": "嘆きの帰路",
      "order": 10,
      "rank": 1,
      "story_only_flg": 0
    },
    {
      "banner_image": "",
      "banner_url": "https://web-sxd.age-corp.jp/notice/?p=4171",
      "category": "an1_999_0011",
      "disable": 0,
      "icon_boss": "ic_en_60165.png",
      "id": 911,
      "map_name": "stage_0011.png",
      "map_x": 1276,
      "map_y": 1178,
      "name": "PHASE11",
      "name_sub": "夕暮れの遊園地",
      "order": 11,
      "rank": 1,
      "story_only_flg": 0
    },
    {
      "banner_image": "",
      "banner_url": "https://web-sxd.age-corp.jp/notice/?p=4171",
      "category": "an1_999_0012",
      "disable": 0,
      "icon_boss": "ic_en_60177.png",
      "id": 912,
      "map_name": "stage_0012.png",
      "map_x": 1276,
      "map_y": 1178,
      "name": "PHASE12",
      "name_sub": "コスモリアランド",
      "order": 12,
      "rank": 1,
      "story_only_flg": 0
    },
    {
      "banner_image": "",
      "banner_url": "https://web-sxd.age-corp.jp/notice/?p=4171",
      "category": "an1_999_0013",
      "disable": 0,
      "icon_boss": "ic_en_60189.png",
      "id": 913,
      "map_name": "stage_0013.png",
      "map_x": 1276,
      "map_y": 1178,
      "name": "PHASE13",
      "name_sub": "夜は更けて",
      "order": 13,
      "rank": 1,
      "story_only_flg": 0
    },
    {
      "banner_image": "",
      "banner_url": "https://web-sxd.age-corp.jp/notice/?p=4171",
      "category": "an1_999_0014",
      "disable": 0,
      "icon_boss": "ic_en_60199.png",
      "id": 914,
      "map_name": "stage_0014.png",
      "map_x": 1276,
      "map_y": 1178,
      "name": "PHASE14",
      "name_sub": "ゾンビの街",
      "order": 14,
      "rank": 1,
      "story_only_flg": 0
    },
    {
      "banner_image": "",
      "banner_url": "https://web-sxd.age-corp.jp/notice/?p=4171",
      "category": "an1_999_0015",
      "disable": 0,
      "icon_boss": "ic_en_60201.png",
      "id": 915,
      "map_name": "stage_0015.png",
      "map_x": 1276,
      "map_y": 1178,
      "name": "PHASE15",
      "name_sub": "明け方の地獄",
      "order": 15,
      "rank": 1,
      "story_only_flg": 0
    },
    {
      "banner_image": "",
      "banner_url": "https://web-sxd.age-corp.jp/notice/?p=4171",
      "category": "an1_999_0016",
      "disable": 0,
      "icon_boss": "ic_en_60216.png",
      "id": 916,
      "map_name": "stage_0016.png",
      "map_x": 1276,
      "map_y": 1178,
      "name": "PHASE16",
      "name_sub": "一路南の島へ",
      "order": 16,
      "rank": 1,
      "story_only_flg": 0
    },
    {
      "banner_image": "",
      "banner_url": "https://web-sxd.age-corp.jp/notice/?p=4171",
      "category": "an1_999_0017",
      "disable": 0,
      "icon_boss": "ic_en_60217.png",
      "id": 917,
      "map_name": "stage_0017.png",
      "map_x": 1276,
      "map_y": 1178,
      "name": "PHASE17",
      "name_sub": "本州への関門",
      "order": 17,
      "rank": 1,
      "story_only_flg": 0
    },
    {
      "banner_image": "",
      "banner_url": "https://web-sxd.age-corp.jp/notice/?p=4171",
      "category": "an1_999_0018",
      "disable": 0,
      "icon_boss": "ic_en_400132.png",
      "id": 918,
      "map_name": "stage_0018.png",
      "map_x": 1276,
      "map_y": 1178,
      "name": "PHASE18",
      "name_sub": "駅前の惨状",
      "order": 18,
      "rank": 1,
      "story_only_flg": 0
    },
    {
      "banner_image": "",
      "banner_url": "https://web-sxd.age-corp.jp/notice/?p=4171",
      "category": "an1_999_0019",
      "disable": 0,
      "icon_boss": "ic_en_400133.png",
      "id": 919,
      "map_name": "stage_0019.png",
      "map_x": 1276,
      "map_y": 1178,
      "name": "PHASE19",
      "name_sub": "富野産業工業地帯",
      "order": 19,
      "rank": 1,
      "story_only_flg": 0
    },
    {
      "banner_image": "",
      "banner_url": "https://web-sxd.age-corp.jp/notice/?p=4171",
      "category": "an1_999_0020",
      "disable": 0,
      "icon_boss": "ic_en_400137.png",
      "id": 920,
      "map_name": "stage_0020.png",
      "map_x": 1276,
      "map_y": 1178,
      "name": "PHASE20",
      "name_sub": "エノルメ居住区",
      "order": 20,
      "rank": 1,
      "story_only_flg": 0
    },
    {
      "banner_image": "",
      "banner_url": "https://web-sxd.age-corp.jp/notice/?p=4171",
      "category": "an1_999_0021",
      "disable": 0,
      "icon_boss": "ic_en_60226.png",
      "id": 921,
      "map_name": "stage_0021.png",
      "map_x": 1276,
      "map_y": 1178,
      "name": "PHASE21",
      "name_sub": "デパートへ行こう",
      "order": 21,
      "rank": 1,
      "story_only_flg": 0
    },
    {
      "banner_image": "",
      "banner_url": "https://web-sxd.age-corp.jp/notice/?p=4171",
      "category": "an1_999_0022",
      "disable": 0,
      "icon_boss": "ic_en_60228.png",
      "id": 922,
      "map_name": "stage_0022.png",
      "map_x": 1276,
      "map_y": 1178,
      "name": "PHASE22",
      "name_sub": "メグリエ廻り1",
      "order": 22,
      "rank": 1,
      "story_only_flg": 0
    },
    {
      "banner_image": "",
      "banner_url": "https://web-sxd.age-corp.jp/notice/?p=4171",
      "category": "an1_999_0023",
      "disable": 0,
      "icon_boss": "ic_en_60218.png",
      "id": 923,
      "map_name": "stage_0023.png",
      "map_x": 1276,
      "map_y": 1178,
      "name": "PHASE23",
      "name_sub": "メグリエ廻り2",
      "order": 23,
      "rank": 1,
      "story_only_flg": 0
    },
    {
      "banner_image": "",
      "banner_url": "https://web-sxd.age-corp.jp/notice/?p=4171",
      "category": "an1_999_0024",
      "disable": 0,
      "icon_boss": "ic_en_60225.png",
      "id": 924,
      "map_name": "stage_0024.png",
      "map_x": 1276,
      "map_y": 1178,
      "name": "PHASE24",
      "name_sub": "蒼穹は堕つ",
      "order": 24,
      "rank": 1,
      "story_only_flg": 0
    },
    {
      "banner_image": "",
      "banner_url": "https://web-sxd.age-corp.jp/notice/?p=4171",
      "category": "an1_999_0025",
      "disable": 0,
      "icon_boss": "ic_en_10141.png",
      "id": 925,
      "map_name": "stage_0025.png",
      "map_x": 1276,
      "map_y": 1178,
      "name": "PHASE25",
      "name_sub": "血まみれ叉路",
      "order": 25,
      "rank": 1,
      "story_only_flg": 0
    },
    {
      "banner_image": "",
      "banner_url": "https://web-sxd.age-corp.jp/notice/?p=4171",
      "category": "an1_999_0026",
      "disable": 0,
      "icon_boss": "ic_en_10028.png",
      "id": 926,
      "map_name": "stage_0026.png",
      "map_x": 1276,
      "map_y": 1178,
      "name": "PHASE26",
      "name_sub": "感染水に沈む夜1【剣】",
      "order": 26,
      "rank": 1,
      "story_only_flg": 0
    },
    {
      "banner_image": "",
      "banner_url": "https://web-sxd.age-corp.jp/notice/?p=4171",
      "category": "an1_999_0027",
      "disable": 0,
      "icon_boss": "ic_en_10028.png",
      "id": 927,
      "map_name": "stage_0027.png",
      "map_x": 1276,
      "map_y": 1178,
      "name": "PHASE27",
      "name_sub": "感染水に沈む夜2【化】",
      "order": 27,
      "rank": 1,
      "story_only_flg": 0
    },
    {
      "banner_image": "",
      "banner_url": "https://web-sxd.age-corp.jp/notice/?p=4171",
      "category": "an1_999_0028",
      "disable": 0,
      "icon_boss": "ic_en_10032.png",
      "id": 928,
      "map_name": "stage_0028.png",
      "map_x": 1276,
      "map_y": 1178,
      "name": "PHASE28",
      "name_sub": "感染水に沈む夜3【射】",
      "order": 28,
      "rank": 1,
      "story_only_flg": 0
    },
    {
      "banner_image": "",
      "banner_url": "https://web-sxd.age-corp.jp/notice/?p=4171",
      "category": "an1_999_0029",
      "disable": 0,
      "icon_boss": "ic_en_10032.png",
      "id": 929,
      "map_name": "stage_0029.png",
      "map_x": 1276,
      "map_y": 1178,
      "name": "PHASE29",
      "name_sub": "感染水に沈む夜4【武】",
      "order": 29,
      "rank": 1,
      "story_only_flg": 0
    },
    {
      "banner_image": "",
      "banner_url": "https://web-sxd.age-corp.jp/notice/?p=4171",
      "category": "an1_999_0030",
      "disable": 0,
      "icon_boss": "ic_en_10039.png",
      "id": 930,
      "map_name": "stage_0030.png",
      "map_x": 1276,
      "map_y": 1178,
      "name": "PHASE30",
      "name_sub": "感染水に沈む夜5【音】",
      "order": 30,
      "rank": 1,
      "story_only_flg": 0
    },
    {
      "banner_image": "",
      "banner_url": "https://web-sxd.age-corp.jp/notice/?p=4171",
      "category": "an1_999_0031",
      "disable": 0,
      "icon_boss": "ic_en_60128.png",
      "id": 931,
      "map_name": "stage_0031.png",
      "map_x": 1276,
      "map_y": 1178,
      "name": "PHASE31",
      "name_sub": "終末の覇権争い1【剣】",
      "order": 31,
      "rank": 1,
      "story_only_flg": 0
    },
    {
      "banner_image": "",
      "banner_url": "https://web-sxd.age-corp.jp/notice/?p=4171",
      "category": "an1_999_0032",
      "disable": 0,
      "icon_boss": "ic_en_60158.png",
      "id": 932,
      "map_name": "stage_0032.png",
      "map_x": 1276,
      "map_y": 1178,
      "name": "PHASE32",
      "name_sub": "終末の覇権争い1【化】",
      "order": 32,
      "rank": 1,
      "story_only_flg": 0
    },
    {
      "banner_image": "",
      "banner_url": "https://web-sxd.age-corp.jp/notice/?p=4171",
      "category": "an1_999_0033",
      "disable": 0,
      "icon_boss": "ic_en_60217.png",
      "id": 933,
      "map_name": "stage_0033.png",
      "map_x": 1276,
      "map_y": 1178,
      "name": "PHASE33",
      "name_sub": "君臨せし王者たち【射】",
      "order": 33,
      "rank": 1,
      "story_only_flg": 0
    },
    {
      "banner_image": "",
      "banner_url": "https://web-sxd.age-corp.jp/notice/?p=4171",
      "category": "an1_999_0034",
      "disable": 0,
      "icon_boss": "ic_en_60201.png",
      "id": 934,
      "map_name": "stage_0034.png",
      "map_x": 1276,
      "map_y": 1178,
      "name": "PHASE34",
      "name_sub": "一度拠点へ戻ろう【武】",
      "order": 34,
      "rank": 1,
      "story_only_flg": 0
    },
    {
      "banner_image": "",
      "banner_url": "https://web-sxd.age-corp.jp/notice/?p=4171",
      "category": "an1_999_0035",
      "disable": 0,
      "icon_boss": "ic_hadary.png",
      "id": 935,
      "map_name": "stage_0035.png",
      "map_x": 1276,
      "map_y": 1178,
      "name": "PHASE35",
      "name_sub": "退路なき旅路【帰】",
      "order": 35,
      "rank": 1,
      "story_only_flg": 0
    },
    {
      "banner_image": "",
      "banner_url": "https://web-sxd.age-corp.jp/notice/?p=4171",
      "category": "an1_999_0036",
      "disable": 0,
      "icon_boss": "ic_en_100099.png",
      "id": 936,
      "map_name": "stage_0036.png",
      "map_x": 1276,
      "map_y": 1178,
      "name": "PHASE36",
      "name_sub": "壊れかけた白昼夢",
      "order": 36,
      "rank": 1,
      "story_only_flg": 0
    },
    {
      "banner_image": "",
      "banner_url": "https://web-sxd.age-corp.jp/notice/?p=4171",
      "category": "an1_999_0037",
      "disable": 0,
      "icon_boss": "ic_Kamagami.png",
      "id": 937,
      "map_name": "stage_0037.png",
      "map_x": 1276,
      "map_y": 1178,
      "name": "PHASE37",
      "name_sub": "死街を彷徨う雨悪魔",
      "order": 37,
      "rank": 1,
      "story_only_flg": 0
    },
    {
      "banner_image": "",
      "banner_url": "https://web-sxd.age-corp.jp/notice/?p=4171",
      "category": "an1_999_0038",
      "disable": 0,
      "icon_boss": "ic_nanami.png",
      "id": 938,
      "map_name": "stage_0038.png",
      "map_x": 1276,
      "map_y": 1178,
      "name": "PHASE38",
      "name_sub": "誰しも正義でありたい",
      "order": 38,
      "rank": 1,
      "story_only_flg": 0
    },
    {
      "banner_image": "",
      "banner_url": "https://web-sxd.age-corp.jp/notice/?p=4171",
      "category": "an1_999_0039",
      "disable": 0,
      "icon_boss": "ic_mahito.png",
      "id": 939,
      "map_name": "stage_0039.png",
      "map_x": 1276,
      "map_y": 1178,
      "name": "PHASE39",
      "name_sub": "鳳凰招来",
      "order": 39,
      "rank": 1,
      "story_only_flg": 0
    },
    {
      "banner_image": "",
      "banner_url": "https://web-sxd.age-corp.jp/notice/?p=4171",
      "category": "an1_999_0040",
      "disable": 0,
      "icon_boss": "ic_kaho.png",
      "id": 940,
      "map_name": "stage_0040.png",
      "map_x": 1276,
      "map_y": 1178,
      "name": "PHASE40",
      "name_sub": "人類という生物",
      "order": 40,
      "rank": 1,
      "story_only_flg": 0
    },
    {
      "banner_image": "",
      "banner_url": "https://web-sxd.age-corp.jp/notice/?p=5773",
      "category": "an1_998_0001",
      "disable": 0,
      "icon_boss": "ic_en_60105.png",
      "id": 1001,
      "map_name": "ic_en_60105.png",
      "map_x": 1276,
      "map_y": 1178,
      "name": "PHASE1",
      "name_sub": "帰らぬ旅路へ",
      "order": 1,
      "rank": 1,
      "story_only_flg": 0
    },
    {
      "banner_image": "",
      "banner_url": "https://web-sxd.age-corp.jp/notice/?p=5773",
      "category": "an1_998_0002",
      "disable": 0,
      "icon_boss": "ic_en_60110.png",
      "id": 1002,
      "map_name": "ic_en_60110.png",
      "map_x": 1276,
      "map_y": 1178,
      "name": "PHASE2",
      "name_sub": "渚輪区市街",
      "order": 2,
      "rank": 1,
      "story_only_flg": 0
    },
    {
      "banner_image": "",
      "banner_url": "https://web-sxd.age-corp.jp/notice/?p=5773",
      "category": "an1_998_0003",
      "disable": 0,
      "icon_boss": "ic_en_60115.png",
      "id": 1003,
      "map_name": "ic_en_60115.png",
      "map_x": 1276,
      "map_y": 1178,
      "name": "PHASE3",
      "name_sub": "中華街",
      "order": 3,
      "rank": 1,
      "story_only_flg": 0
    },
    {
      "banner_image": "",
      "banner_url": "https://web-sxd.age-corp.jp/notice/?p=5773",
      "category": "an1_998_0004",
      "disable": 0,
      "icon_boss": "ic_en_60122.png",
      "id": 1004,
      "map_name": "ic_en_60122.png",
      "map_x": 1276,
      "map_y": 1178,
      "name": "PHASE4",
      "name_sub": "山本公園",
      "order": 4,
      "rank": 1,
      "story_only_flg": 0
    },
    {
      "banner_image": "",
      "banner_url": "https://web-sxd.age-corp.jp/notice/?p=5773",
      "category": "an1_998_0005",
      "disable": 0,
      "icon_boss": "ic_en_60128.png",
      "id": 1005,
      "map_name": "stage_0005.png",
      "map_x": 1276,
      "map_y": 1178,
      "name": "PHASE5",
      "name_sub": "中華街へ戻る",
      "order": 5,
      "rank": 1,
      "story_only_flg": 0
    },
    {
      "banner_image": "",
      "banner_url": "https://web-sxd.age-corp.jp/notice/?p=5773",
      "category": "an1_998_0006",
      "disable": 0,
      "icon_boss": "ic_en_60133.png",
      "id": 1006,
      "map_name": "stage_0006.png",
      "map_x": 1276,
      "map_y": 1178,
      "name": "PHASE6",
      "name_sub": "プール王国",
      "order": 6,
      "rank": 1,
      "story_only_flg": 0
    },
    {
      "banner_image": "",
      "banner_url": "https://web-sxd.age-corp.jp/notice/?p=5773",
      "category": "an1_998_0007",
      "disable": 0,
      "icon_boss": "ic_en_60138.png",
      "id": 1007,
      "map_name": "stage_0007.png",
      "map_x": 1276,
      "map_y": 1178,
      "name": "PHASE7",
      "name_sub": "一路北西へ",
      "order": 7,
      "rank": 1,
      "story_only_flg": 0
    },
    {
      "banner_image": "",
      "banner_url": "https://web-sxd.age-corp.jp/notice/?p=5773",
      "category": "an1_998_0008",
      "disable": 0,
      "icon_boss": "ic_en_60140.png",
      "id": 1008,
      "map_name": "stage_0008.png",
      "map_x": 1276,
      "map_y": 1178,
      "name": "PHASE8",
      "name_sub": "食料補給",
      "order": 8,
      "rank": 1,
      "story_only_flg": 0
    },
    {
      "banner_image": "",
      "banner_url": "https://web-sxd.age-corp.jp/notice/?p=5773",
      "category": "an1_998_0009",
      "disable": 0,
      "icon_boss": "ic_en_60151.png",
      "id": 1009,
      "map_name": "stage_0009.png",
      "map_x": 1276,
      "map_y": 1178,
      "name": "PHASE9",
      "name_sub": "榎林ヶ丘の顛末",
      "order": 9,
      "rank": 1,
      "story_only_flg": 0
    },
    {
      "banner_image": "",
      "banner_url": "https://web-sxd.age-corp.jp/notice/?p=5773",
      "category": "an1_998_0010",
      "disable": 0,
      "icon_boss": "ic_en_60158.png",
      "id": 1010,
      "map_name": "stage_0010.png",
      "map_x": 1276,
      "map_y": 1178,
      "name": "PHASE10",
      "name_sub": "嘆きの帰路",
      "order": 10,
      "rank": 1,
      "story_only_flg": 0
    },
    {
      "banner_image": "",
      "banner_url": "https://web-sxd.age-corp.jp/notice/?p=5773",
      "category": "an1_998_0011",
      "disable": 0,
      "icon_boss": "ic_en_60165.png",
      "id": 1011,
      "map_name": "stage_0011.png",
      "map_x": 1276,
      "map_y": 1178,
      "name": "PHASE11",
      "name_sub": "夕暮れの遊園地",
      "order": 11,
      "rank": 1,
      "story_only_flg": 0
    },
    {
      "banner_image": "",
      "banner_url": "https://web-sxd.age-corp.jp/notice/?p=5773",
      "category": "an1_998_0012",
      "disable": 0,
      "icon_boss": "ic_en_60177.png",
      "id": 1012,
      "map_name": "stage_0012.png",
      "map_x": 1276,
      "map_y": 1178,
      "name": "PHASE12",
      "name_sub": "コスモリアランド",
      "order": 12,
      "rank": 1,
      "story_only_flg": 0
    },
    {
      "banner_image": "",
      "banner_url": "https://web-sxd.age-corp.jp/notice/?p=5773",
      "category": "an1_998_0013",
      "disable": 0,
      "icon_boss": "ic_en_60189.png",
      "id": 1013,
      "map_name": "stage_0013.png",
      "map_x": 1276,
      "map_y": 1178,
      "name": "PHASE13",
      "name_sub": "夜は更けて",
      "order": 13,
      "rank": 1,
      "story_only_flg": 0
    },
    {
      "banner_image": "",
      "banner_url": "https://web-sxd.age-corp.jp/notice/?p=5773",
      "category": "an1_998_0014",
      "disable": 0,
      "icon_boss": "ic_en_60199.png",
      "id": 1014,
      "map_name": "stage_0014.png",
      "map_x": 1276,
      "map_y": 1178,
      "name": "PHASE14",
      "name_sub": "ゾンビの街",
      "order": 14,
      "rank": 1,
      "story_only_flg": 0
    },
    {
      "banner_image": "",
      "banner_url": "https://web-sxd.age-corp.jp/notice/?p=5773",
      "category": "an1_998_0015",
      "disable": 0,
      "icon_boss": "ic_en_60201.png",
      "id": 1015,
      "map_name": "stage_0015.png",
      "map_x": 1276,
      "map_y": 1178,
      "name": "PHASE15",
      "name_sub": "明け方の地獄",
      "order": 15,
      "rank": 1,
      "story_only_flg": 0
    },
    {
      "banner_image": "",
      "banner_url": "https://web-sxd.age-corp.jp/notice/?p=5773",
      "category": "an1_998_0016",
      "disable": 0,
      "icon_boss": "ic_en_60216.png",
      "id": 1016,
      "map_name": "stage_0016.png",
      "map_x": 1276,
      "map_y": 1178,
      "name": "PHASE16",
      "name_sub": "一路南の島へ",
      "order": 16,
      "rank": 1,
      "story_only_flg": 0
    },
    {
      "banner_image": "",
      "banner_url": "https://web-sxd.age-corp.jp/notice/?p=5773",
      "category": "an1_998_0017",
      "disable": 0,
      "icon_boss": "ic_en_60217.png",
      "id": 1017,
      "map_name": "stage_0017.png",
      "map_x": 1276,
      "map_y": 1178,
      "name": "PHASE17",
      "name_sub": "本州への関門",
      "order": 17,
      "rank": 1,
      "story_only_flg": 0
    },
    {
      "banner_image": "",
      "banner_url": "https://web-sxd.age-corp.jp/notice/?p=5773",
      "category": "an1_998_0018",
      "disable": 0,
      "icon_boss": "ic_en_400132.png",
      "id": 1018,
      "map_name": "stage_0018.png",
      "map_x": 1276,
      "map_y": 1178,
      "name": "PHASE18",
      "name_sub": "駅前の惨状",
      "order": 18,
      "rank": 1,
      "story_only_flg": 0
    },
    {
      "banner_image": "",
      "banner_url": "https://web-sxd.age-corp.jp/notice/?p=5773",
      "category": "an1_998_0019",
      "disable": 0,
      "icon_boss": "ic_en_400133.png",
      "id": 1019,
      "map_name": "stage_0019.png",
      "map_x": 1276,
      "map_y": 1178,
      "name": "PHASE19",
      "name_sub": "富野産業工業地帯",
      "order": 19,
      "rank": 1,
      "story_only_flg": 0
    },
    {
      "banner_image": "",
      "banner_url": "https://web-sxd.age-corp.jp/notice/?p=5773",
      "category": "an1_998_0020",
      "disable": 0,
      "icon_boss": "ic_en_400137.png",
      "id": 1020,
      "map_name": "stage_0020.png",
      "map_x": 1276,
      "map_y": 1178,
      "name": "PHASE20",
      "name_sub": "エノルメ居住区",
      "order": 20,
      "rank": 1,
      "story_only_flg": 0
    },
    {
      "banner_image": "",
      "banner_url": "https://web-sxd.age-corp.jp/notice/?p=5773",
      "category": "an1_998_0021",
      "disable": 0,
      "icon_boss": "ic_en_60226.png",
      "id": 1021,
      "map_name": "stage_0021.png",
      "map_x": 1276,
      "map_y": 1178,
      "name": "PHASE21",
      "name_sub": "デパートへ行こう",
      "order": 21,
      "rank": 1,
      "story_only_flg": 0
    },
    {
      "banner_image": "",
      "banner_url": "https://web-sxd.age-corp.jp/notice/?p=5773",
      "category": "an1_998_0022",
      "disable": 0,
      "icon_boss": "ic_en_60228.png",
      "id": 1022,
      "map_name": "stage_0022.png",
      "map_x": 1276,
      "map_y": 1178,
      "name": "PHASE22",
      "name_sub": "メグリエ廻り1",
      "order": 22,
      "rank": 1,
      "story_only_flg": 0
    },
    {
      "banner_image": "",
      "banner_url": "https://web-sxd.age-corp.jp/notice/?p=5773",
      "category": "an1_998_0023",
      "disable": 0,
      "icon_boss": "ic_en_60218.png",
      "id": 1023,
      "map_name": "stage_0023.png",
      "map_x": 1276,
      "map_y": 1178,
      "name": "PHASE23",
      "name_sub": "メグリエ廻り2",
      "order": 23,
      "rank": 1,
      "story_only_flg": 0
    },
    {
      "banner_image": "",
      "banner_url": "https://web-sxd.age-corp.jp/notice/?p=5773",
      "category": "an1_998_0024",
      "disable": 0,
      "icon_boss": "ic_en_60225.png",
      "id": 1024,
      "map_name": "stage_0024.png",
      "map_x": 1276,
      "map_y": 1178,
      "name": "PHASE24",
      "name_sub": "蒼穹は堕つ",
      "order": 24,
      "rank": 1,
      "story_only_flg": 0
    },
    {
      "banner_image": "",
      "banner_url": "https://web-sxd.age-corp.jp/notice/?p=5773",
      "category": "an1_998_0025",
      "disable": 0,
      "icon_boss": "ic_en_10141.png",
      "id": 1025,
      "map_name": "stage_0025.png",
      "map_x": 1276,
      "map_y": 1178,
      "name": "PHASE25",
      "name_sub": "血まみれ叉路",
      "order": 25,
      "rank": 1,
      "story_only_flg": 0
    },
    {
      "banner_image": "",
      "banner_url": "https://web-sxd.age-corp.jp/notice/?p=5773",
      "category": "an1_998_0026",
      "disable": 0,
      "icon_boss": "ic_en_10028.png",
      "id": 1026,
      "map_name": "stage_0026.png",
      "map_x": 1276,
      "map_y": 1178,
      "name": "PHASE26",
      "name_sub": "感染水に沈む夜1【剣】",
      "order": 26,
      "rank": 1,
      "story_only_flg": 0
    },
    {
      "banner_image": "",
      "banner_url": "https://web-sxd.age-corp.jp/notice/?p=5773",
      "category": "an1_998_0027",
      "disable": 0,
      "icon_boss": "ic_en_10028.png",
      "id": 1027,
      "map_name": "stage_0027.png",
      "map_x": 1276,
      "map_y": 1178,
      "name": "PHASE27",
      "name_sub": "感染水に沈む夜2【化】",
      "order": 27,
      "rank": 1,
      "story_only_flg": 0
    },
    {
      "banner_image": "",
      "banner_url": "https://web-sxd.age-corp.jp/notice/?p=5773",
      "category": "an1_998_0028",
      "disable": 0,
      "icon_boss": "ic_en_10032.png",
      "id": 1028,
      "map_name": "stage_0028.png",
      "map_x": 1276,
      "map_y": 1178,
      "name": "PHASE28",
      "name_sub": "感染水に沈む夜3【射】",
      "order": 28,
      "rank": 1,
      "story_only_flg": 0
    },
    {
      "banner_image": "",
      "banner_url": "https://web-sxd.age-corp.jp/notice/?p=5773",
      "category": "an1_998_0029",
      "disable": 0,
      "icon_boss": "ic_en_10032.png",
      "id": 1029,
      "map_name": "stage_0029.png",
      "map_x": 1276,
      "map_y": 1178,
      "name": "PHASE29",
      "name_sub": "感染水に沈む夜4【武】",
      "order": 29,
      "rank": 1,
      "story_only_flg": 0
    },
    {
      "banner_image": "",
      "banner_url": "https://web-sxd.age-corp.jp/notice/?p=5773",
      "category": "an1_998_0030",
      "disable": 0,
      "icon_boss": "ic_en_10039.png",
      "id": 1030,
      "map_name": "stage_0030.png",
      "map_x": 1276,
      "map_y": 1178,
      "name": "PHASE30",
      "name_sub": "感染水に沈む夜5【音】",
      "order": 30,
      "rank": 1,
      "story_only_flg": 0
    },
    {
      "banner_image": "",
      "banner_url": "https://web-sxd.age-corp.jp/notice/?p=5773",
      "category": "an1_998_0031",
      "disable": 0,
      "icon_boss": "ic_en_60128.png",
      "id": 1031,
      "map_name": "stage_0031.png",
      "map_x": 1276,
      "map_y": 1178,
      "name": "PHASE31",
      "name_sub": "終末の覇権争い1【剣】",
      "order": 31,
      "rank": 1,
      "story_only_flg": 0
    },
    {
      "banner_image": "",
      "banner_url": "https://web-sxd.age-corp.jp/notice/?p=5773",
      "category": "an1_998_0032",
      "disable": 0,
      "icon_boss": "ic_en_60158.png",
      "id": 1032,
      "map_name": "stage_0032.png",
      "map_x": 1276,
      "map_y": 1178,
      "name": "PHASE32",
      "name_sub": "終末の覇権争い1【化】",
      "order": 32,
      "rank": 1,
      "story_only_flg": 0
    },
    {
      "banner_image": "",
      "banner_url": "https://web-sxd.age-corp.jp/notice/?p=5773",
      "category": "an1_998_0033",
      "disable": 0,
      "icon_boss": "ic_en_60217.png",
      "id": 1033,
      "map_name": "stage_0033.png",
      "map_x": 1276,
      "map_y": 1178,
      "name": "PHASE33",
      "name_sub": "君臨せし王者たち【射】",
      "order": 33,
      "rank": 1,
      "story_only_flg": 0
    },
    {
      "banner_image": "",
      "banner_url": "https://web-sxd.age-corp.jp/notice/?p=5773",
      "category": "an1_998_0034",
      "disable": 0,
      "icon_boss": "ic_en_60201.png",
      "id": 1034,
      "map_name": "stage_0034.png",
      "map_x": 1276,
      "map_y": 1178,
      "name": "PHASE34",
      "name_sub": "一度拠点へ戻ろう【武】",
      "order": 34,
      "rank": 1,
      "story_only_flg": 0
    },
    {
      "banner_image": "",
      "banner_url": "https://web-sxd.age-corp.jp/notice/?p=5773",
      "category": "an1_998_0035",
      "disable": 0,
      "icon_boss": "ic_hadary.png",
      "id": 1035,
      "map_name": "stage_0035.png",
      "map_x": 1276,
      "map_y": 1178,
      "name": "PHASE35",
      "name_sub": "退路なき旅路【音】",
      "order": 35,
      "rank": 1,
      "story_only_flg": 0
    },
    {
      "banner_image": "",
      "banner_url": "https://web-sxd.age-corp.jp/notice/?p=5773",
      "category": "an1_998_0036",
      "disable": 0,
      "icon_boss": "ic_en_100099.png",
      "id": 1036,
      "map_name": "stage_0036.png",
      "map_x": 1276,
      "map_y": 1178,
      "name": "PHASE36",
      "name_sub": "壊れかけた白昼夢",
      "order": 36,
      "rank": 1,
      "story_only_flg": 0
    },
    {
      "banner_image": "",
      "banner_url": "https://web-sxd.age-corp.jp/notice/?p=5773",
      "category": "an1_998_0037",
      "disable": 0,
      "icon_boss": "ic_Kamagami.png",
      "id": 1037,
      "map_name": "stage_0037.png",
      "map_x": 1276,
      "map_y": 1178,
      "name": "PHASE37",
      "name_sub": "死街を彷徨う雨悪魔",
      "order": 37,
      "rank": 1,
      "story_only_flg": 0
    },
    {
      "banner_image": "",
      "banner_url": "https://web-sxd.age-corp.jp/notice/?p=5773",
      "category": "an1_998_0038",
      "disable": 0,
      "icon_boss": "ic_nanami.png",
      "id": 1038,
      "map_name": "stage_0038.png",
      "map_x": 1276,
      "map_y": 1178,
      "name": "PHASE38",
      "name_sub": "誰しも正義でありたい",
      "order": 38,
      "rank": 1,
      "story_only_flg": 0
    },
    {
      "banner_image": "",
      "banner_url": "https://web-sxd.age-corp.jp/notice/?p=5773",
      "category": "an1_998_0039",
      "disable": 0,
      "icon_boss": "ic_mahito.png",
      "id": 1039,
      "map_name": "stage_0039.png",
      "map_x": 1276,
      "map_y": 1178,
      "name": "PHASE39",
      "name_sub": "鳳凰招来",
      "order": 39,
      "rank": 1,
      "story_only_flg": 0
    },
    {
      "banner_image": "",
      "banner_url": "https://web-sxd.age-corp.jp/notice/?p=5773",
      "category": "an1_998_0040",
      "disable": 0,
      "icon_boss": "ic_kaho.png",
      "id": 1040,
      "map_name": "stage_0040.png",
      "map_x": 1276,
      "map_y": 1178,
      "name": "PHASE40",
      "name_sub": "人類という生物",
      "order": 40,
      "rank": 1,
      "story_only_flg": 0
    },
    {
      "banner_image": "https://web-sxd.age-corp.jp/view/bn_game/bn_game_180406_a.jpg",
      "banner_url": "https://web-sxd.age-corp.jp/notice/?p=10467",
      "category": "an4_001_0001",
      "disable": 0,
      "icon_boss": "ic_en_mgs.png",
      "id": 1041,
      "map_name": "stage_0001.png",
      "map_x": 1276,
      "map_y": 1178,
      "name": "シナリオ",
      "name_sub": "プロローグ",
      "order": 1,
      "rank": 1,
      "story_only_flg": 0
    },
    {
      "banner_image": "https://web-sxd.age-corp.jp/view/bn_game/bn_game_180406_a.jpg",
      "banner_url": "https://web-sxd.age-corp.jp/notice/?p=10467",
      "category": "an4_001_0002",
      "disable": 0,
      "icon_boss": "ic_en_mgs.png",
      "id": 1042,
      "map_name": "stage_0001.png",
      "map_x": 1276,
      "map_y": 1178,
      "name": "シナリオ",
      "name_sub": "第1-1小節",
      "order": 1,
      "rank": 1,
      "story_only_flg": 0
    },
    {
      "banner_image": "https://web-sxd.age-corp.jp/view/bn_game/bn_game_180406_a.jpg",
      "banner_url": "https://web-sxd.age-corp.jp/notice/?p=10467",
      "category": "an4_001_0003",
      "disable": 0,
      "icon_boss": "ic_en_mgs.png",
      "id": 1043,
      "map_name": "stage_0001.png",
      "map_x": 1276,
      "map_y": 1178,
      "name": "シナリオ",
      "name_sub": "第1-2小節",
      "order": 1,
      "rank": 1,
      "story_only_flg": 0
    },
    {
      "banner_image": "https://web-sxd.age-corp.jp/view/bn_game/bn_game_180406_a.jpg",
      "banner_url": "https://web-sxd.age-corp.jp/notice/?p=10467",
      "category": "an4_001_0004",
      "disable": 0,
      "icon_boss": "ic_en_mgs.png",
      "id": 1044,
      "map_name": "stage_0001.png",
      "map_x": 1276,
      "map_y": 1178,
      "name": "シナリオ",
      "name_sub": "第1-3小節",
      "order": 1,
      "rank": 1,
      "story_only_flg": 0
    },
    {
      "banner_image": "https://web-sxd.age-corp.jp/view/bn_game/bn_game_180406_a.jpg",
      "banner_url": "https://web-sxd.age-corp.jp/notice/?p=10467",
      "category": "an4_001_0005",
      "disable": 0,
      "icon_boss": "ic_en_mgs.png",
      "id": 1045,
      "map_name": "stage_0001.png",
      "map_x": 1276,
      "map_y": 1178,
      "name": "シナリオ",
      "name_sub": "第1-4小節",
      "order": 1,
      "rank": 1,
      "story_only_flg": 0
    },
    {
      "banner_image": "https://web-sxd.age-corp.jp/view/bn_game/bn_game_180406_a.jpg",
      "banner_url": "https://web-sxd.age-corp.jp/notice/?p=10467",
      "category": "an4_001_0006",
      "disable": 0,
      "icon_boss": "ic_en_mgs.png",
      "id": 1046,
      "map_name": "stage_0001.png",
      "map_x": 1276,
      "map_y": 1178,
      "name": "シナリオ",
      "name_sub": "第1-5小節",
      "order": 1,
      "rank": 1,
      "story_only_flg": 0
    },
    {
      "banner_image": "https://web-sxd.age-corp.jp/view/bn_game/bn_game_180406_a.jpg",
      "banner_url": "https://web-sxd.age-corp.jp/notice/?p=10467",
      "category": "an4_001_0007",
      "disable": 0,
      "icon_boss": "ic_en_mgs.png",
      "id": 1047,
      "map_name": "stage_0001.png",
      "map_x": 1276,
      "map_y": 1178,
      "name": "シナリオ",
      "name_sub": "第1-6小節",
      "order": 1,
      "rank": 1,
      "story_only_flg": 0
    },
    {
      "banner_image": "https://web-sxd.age-corp.jp/view/bn_game/bn_game_180406_a.jpg",
      "banner_url": "https://web-sxd.age-corp.jp/notice/?p=10467",
      "category": "an4_001_0008",
      "disable": 0,
      "icon_boss": "ic_en_mgs.png",
      "id": 1048,
      "map_name": "stage_0001.png",
      "map_x": 1276,
      "map_y": 1178,
      "name": "シナリオ",
      "name_sub": "第1-7小節",
      "order": 1,
      "rank": 1,
      "story_only_flg": 0
    },
    {
      "banner_image": "https://web-sxd.age-corp.jp/view/bn_game/bn_game_180406_a.jpg",
      "banner_url": "https://web-sxd.age-corp.jp/notice/?p=10467",
      "category": "an4_001_0009",
      "disable": 0,
      "icon_boss": "ic_en_mgs.png",
      "id": 1049,
      "map_name": "stage_0001.png",
      "map_x": 1276,
      "map_y": 1178,
      "name": "シナリオ",
      "name_sub": "第1-8小節",
      "order": 1,
      "rank": 1,
      "story_only_flg": 0
    },
    {
      "banner_image": "https://web-sxd.age-corp.jp/view/bn_game/bn_game_180406_a.jpg",
      "banner_url": "https://web-sxd.age-corp.jp/notice/?p=10467",
      "category": "an4_001_0010",
      "disable": 0,
      "icon_boss": "ic_en_mgs.png",
      "id": 1050,
      "map_name": "stage_0001.png",
      "map_x": 1276,
      "map_y": 1178,
      "name": "シナリオ",
      "name_sub": "第2-1小節",
      "order": 1,
      "rank": 1,
      "story_only_flg": 0
    },
    {
      "banner_image": "https://web-sxd.age-corp.jp/view/bn_game/bn_game_180406_a.jpg",
      "banner_url": "https://web-sxd.age-corp.jp/notice/?p=10467",
      "category": "an4_001_0011",
      "disable": 0,
      "icon_boss": "ic_en_mgs.png",
      "id": 1051,
      "map_name": "stage_0001.png",
      "map_x": 1276,
      "map_y": 1178,
      "name": "シナリオ",
      "name_sub": "第2-2小節",
      "order": 1,
      "rank": 1,
      "story_only_flg": 0
    },
    {
      "banner_image": "https://web-sxd.age-corp.jp/view/bn_game/bn_game_180406_a.jpg",
      "banner_url": "https://web-sxd.age-corp.jp/notice/?p=10467",
      "category": "an4_001_0012",
      "disable": 0,
      "icon_boss": "ic_en_mgs.png",
      "id": 1052,
      "map_name": "stage_0001.png",
      "map_x": 1276,
      "map_y": 1178,
      "name": "シナリオ",
      "name_sub": "第2-3小節",
      "order": 1,
      "rank": 1,
      "story_only_flg": 0
    },
    {
      "banner_image": "https://web-sxd.age-corp.jp/view/bn_game/bn_game_180406_a.jpg",
      "banner_url": "https://web-sxd.age-corp.jp/notice/?p=10467",
      "category": "an4_001_0013",
      "disable": 0,
      "icon_boss": "ic_en_mgs.png",
      "id": 1053,
      "map_name": "stage_0001.png",
      "map_x": 1276,
      "map_y": 1178,
      "name": "シナリオ",
      "name_sub": "第3-1小節",
      "order": 1,
      "rank": 1,
      "story_only_flg": 0
    },
    {
      "banner_image": "https://web-sxd.age-corp.jp/view/bn_game/bn_game_180406_a.jpg",
      "banner_url": "https://web-sxd.age-corp.jp/notice/?p=10467",
      "category": "an4_001_0014",
      "disable": 0,
      "icon_boss": "ic_en_mgs.png",
      "id": 1054,
      "map_name": "stage_0001.png",
      "map_x": 1276,
      "map_y": 1178,
      "name": "シナリオ",
      "name_sub": "第3-2小節",
      "order": 1,
      "rank": 1,
      "story_only_flg": 0
    },
    {
      "banner_image": "https://web-sxd.age-corp.jp/view/bn_game/bn_game_180406_a.jpg",
      "banner_url": "https://web-sxd.age-corp.jp/notice/?p=10467",
      "category": "an4_001_0015",
      "disable": 0,
      "icon_boss": "ic_en_mgs.png",
      "id": 1055,
      "map_name": "stage_0001.png",
      "map_x": 1276,
      "map_y": 1178,
      "name": "シナリオ",
      "name_sub": "第3-3小節",
      "order": 1,
      "rank": 1,
      "story_only_flg": 0
    },
    {
      "banner_image": "",
      "banner_url": "https://web-sxd.age-corp.jp/notice/?p=10467",
      "category": "an4_002_0001",
      "disable": 0,
      "icon_boss": "ic_live2.png",
      "id": 1056,
      "map_name": "stage_0001.png",
      "map_x": 1276,
      "map_y": 1178,
      "name": "シナリオ",
      "name_sub": "入場【通常】",
      "order": 2,
      "rank": 1,
      "story_only_flg": 0
    },
    {
      "banner_image": "",
      "banner_url": "https://web-sxd.age-corp.jp/notice/?p=10467",
      "category": "an4_002_0001",
      "disable": 0,
      "icon_boss": "ic_live2.png",
      "id": 1057,
      "map_name": "stage_0001.png",
      "map_x": 1276,
      "map_y": 1178,
      "name": "シナリオ",
      "name_sub": "入場【高スペック】",
      "order": 2,
      "rank": 1,
      "story_only_flg": 0
    },
    {
      "banner_image": "https://web-sxd.age-corp.jp/view/bn_game/bn_game_180323_a.jpg",
      "banner_url": "https://web-sxd.age-corp.jp/notice/?p=10489",
      "category": "an3_001_0001",
      "disable": 0,
      "icon_boss": "ic_hakoyosuga2.png",
      "id": 1058,
      "map_name": "stage_0001.png",
      "map_x": 1276,
      "map_y": 1178,
      "name": "シナリオ",
      "name_sub": "STAGE4-1",
      "order": 1,
      "rank": 1,
      "story_only_flg": 0
    },
    {
      "banner_image": "https://web-sxd.age-corp.jp/view/bn_game/bn_game_180323_a.jpg",
      "banner_url": "https://web-sxd.age-corp.jp/notice/?p=10489",
      "category": "an3_001_0001",
      "disable": 0,
      "icon_boss": "ic_hakoyosuga2.png",
      "id": 1059,
      "map_name": "stage_0001.png",
      "map_x": 1276,
      "map_y": 1178,
      "name": "シナリオ",
      "name_sub": "STAGE4-2",
      "order": 1,
      "rank": 1,
      "story_only_flg": 0
    },
    {
      "banner_image": "https://web-sxd.age-corp.jp/view/bn_game/bn_game_180323_a.jpg",
      "banner_url": "https://web-sxd.age-corp.jp/notice/?p=10489",
      "category": "an3_001_0001",
      "disable": 0,
      "icon_boss": "ic_hakoyosuga2.png",
      "id": 1060,
      "map_name": "stage_0001.png",
      "map_x": 1276,
      "map_y": 1178,
      "name": "シナリオ",
      "name_sub": "STAGE4-3",
      "order": 1,
      "rank": 1,
      "story_only_flg": 0
    },
    {
      "banner_image": "https://web-sxd.age-corp.jp/view/bn_game/bn_game_180323_a.jpg",
      "banner_url": "https://web-sxd.age-corp.jp/notice/?p=10489",
      "category": "an3_001_0001",
      "disable": 0,
      "icon_boss": "ic_hakoyosuga2.png",
      "id": 1061,
      "map_name": "stage_0001.png",
      "map_x": 1276,
      "map_y": 1178,
      "name": "シナリオ",
      "name_sub": "STAGE4-4",
      "order": 1,
      "rank": 1,
      "story_only_flg": 0
    },
    {
      "banner_image": "https://web-sxd.age-corp.jp/view/bn_game/bn_game_180323_a.jpg",
      "banner_url": "https://web-sxd.age-corp.jp/notice/?p=10489",
      "category": "an3_001_0001",
      "disable": 0,
      "icon_boss": "ic_hakoyosuga2.png",
      "id": 1062,
      "map_name": "stage_0001.png",
      "map_x": 1276,
      "map_y": 1178,
      "name": "シナリオ",
      "name_sub": "STAGE4-5",
      "order": 1,
      "rank": 1,
      "story_only_flg": 0
    },
    {
      "banner_image": "https://web-sxd.age-corp.jp/view/bn_game/bn_game_180323_a.jpg",
      "banner_url": "https://web-sxd.age-corp.jp/notice/?p=10489",
      "category": "an3_001_0001",
      "disable": 0,
      "icon_boss": "ic_hakoyosuga2.png",
      "id": 1063,
      "map_name": "stage_0001.png",
      "map_x": 1276,
      "map_y": 1178,
      "name": "シナリオ",
      "name_sub": "STAGE4-6",
      "order": 1,
      "rank": 1,
      "story_only_flg": 0
    },
    {
      "banner_image": "https://web-sxd.age-corp.jp/view/bn_game/bn_game_180323_a.jpg",
      "banner_url": "https://web-sxd.age-corp.jp/notice/?p=10489",
      "category": "an3_001_0001",
      "disable": 0,
      "icon_boss": "ic_hakoyosuga2.png",
      "id": 1064,
      "map_name": "stage_0001.png",
      "map_x": 1276,
      "map_y": 1178,
      "name": "シナリオ",
      "name_sub": "STAGE4-7",
      "order": 1,
      "rank": 1,
      "story_only_flg": 0
    },
    {
      "banner_image": "https://web-sxd.age-corp.jp/view/bn_game/bn_game_180323_a.jpg",
      "banner_url": "https://web-sxd.age-corp.jp/notice/?p=10489",
      "category": "an3_001_0001",
      "disable": 0,
      "icon_boss": "ic_hakoyosuga2.png",
      "id": 1065,
      "map_name": "stage_0001.png",
      "map_x": 1276,
      "map_y": 1178,
      "name": "シナリオ",
      "name_sub": "STAGE4-8",
      "order": 1,
      "rank": 1,
      "story_only_flg": 0
    },
    {
      "banner_image": "https://web-sxd.age-corp.jp/view/bn_game/bn_game_180323_a.jpg",
      "banner_url": "https://web-sxd.age-corp.jp/notice/?p=10489",
      "category": "an3_001_0001",
      "disable": 0,
      "icon_boss": "ic_hakoyosuga2.png",
      "id": 1066,
      "map_name": "stage_0001.png",
      "map_x": 1276,
      "map_y": 1178,
      "name": "シナリオ",
      "name_sub": "STAGE4-9",
      "order": 1,
      "rank": 1,
      "story_only_flg": 0
    },
    {
      "banner_image": "https://web-sxd.age-corp.jp/view/bn_game/bn_game_180323_a.jpg",
      "banner_url": "https://web-sxd.age-corp.jp/notice/?p=10489",
      "category": "an3_001_0001",
      "disable": 0,
      "icon_boss": "ic_hakoyosuga2.png",
      "id": 1067,
      "map_name": "stage_0001.png",
      "map_x": 1276,
      "map_y": 1178,
      "name": "シナリオ",
      "name_sub": "STAGE4-10",
      "order": 1,
      "rank": 1,
      "story_only_flg": 0
    },
    {
      "banner_image": "https://web-sxd.age-corp.jp/view/bn_game/bn_game_180323_a.jpg",
      "banner_url": "https://web-sxd.age-corp.jp/notice/?p=10489",
      "category": "an3_001_0001",
      "disable": 0,
      "icon_boss": "ic_hakoyosuga2.png",
      "id": 1068,
      "map_name": "stage_0001.png",
      "map_x": 1276,
      "map_y": 1178,
      "name": "シナリオ",
      "name_sub": "STAGE4-11",
      "order": 1,
      "rank": 1,
      "story_only_flg": 0
    }
  ],
  "result": 0
}